{
    "Dm": 0.00666, 
    "deltat": 0.005, 
    "suffix": "run", 
    "final_time": 10, 
    "sample_time": 1, 
    "nb": 10, 
    "Llayer": 1, 
    "prefix": "benchmark_layer", 
    "L0": 1, 
    "starting_point": 0.5, 
    "starting": "uniform", 
    "method": "sbmlin", 
    "D0": 5,
	"directory":"../runs"
}