{
  "L0": 600,
  "L1": 600,
  "D0": 5,
  "D1": 1,
  "nbsteps": 20,
  "deltat": 0.01,
  "nb": 10000,
  "starting_point": 0.25,
  "starting": "fixed",
  "method": "uffink",
  "prefix":"comparison_density",
  "suffix": "test",
  "directory":"runs"
}
